 NAME, INTELLIGENCE, STRENGTH, SPEED, DURABILITY, POWER, COMBAT
A-Bomb,38,100,17,80,17,64
Abe Sapien,88,14,35,42,35,85
Abin Sur,50,90,53,64,84,65
Abomination,63,80,53,90,55,95
Abraxas,88,100,83,99,100,56
Absorbing Man,38,80,25,100,100,64
Adam Monroe,63,10,12,100,71,64
Adam Strange,,,,,,
Agent 13,,,,,,
Agent Bob,10,8,13,5,5,20
